{
	"type": "create:crushing",
	"ingredients": [
		{
			"item": "byg:budding_ametrine_ore"
		}
	],
	"results": [
		{
			"item": "byg:ametrine_gems"
		},
		{
			"item": "byg:ametrine_gems",
			"chance": 0.5
		},
		{
			"item": "byg:cobbled_ether_stone",
			"chance": 0.125
		}
	],
	"processingTime": 350
}
