{
	"type": "create:crushing",
	"ingredients": [
		{
			"item": "byg:brimstone_nether_gold_ore"
		}
	],
	"results": [
		{
			"item": "minecraft:gold_nugget",
			"count": 18
		},
		{
			"item": "create:experience_nugget",
			"chance": 0.75
		},
		{
			"item": "byg:brimstone",
			"chance": 0.125
		}
	],
	"processingTime": 350
}
