{
	"type": "create:crushing",
	"ingredients": [
		{
			"item": "excavated_variants:deepslate_osmium_ore"
		}
	],
	"results": [
		{
			"item": "create:crushed_osmium_ore"
		},
		{
			"item": "create:crushed_osmium_ore",
			"chance": 0.75
		},
		{
			"item": "create:experience_nugget",
			"chance": 0.75
		},
		{
			"item": "minecraft:cobbled_deepslate",
			"chance": 0.125
		}
	],
	"processingTime": 350
}
