{
	"parent": "ariadne:tech/cc",
	"display": {
		"icon": { "item": "allium_peripherals:chat_modem" },
		"title": { "translate": "advancements.ariadne.tech.allium.title" },
		"description": { "translate": "advancements.ariadne.tech.allium.description" }
	},
	"criteria": {
		"modem": {
			"trigger": "minecraft:inventory_changed",
			"conditions": {
				"items": [
					{
						"items": [ "allium_peripherals:chat_modem" ]
					}
				]
			}
		}
	}
}
