{
	"parent": "ariadne:tech/root",
	"display": {
		"icon": { "item": "powah:battery_nitro" },
		"title": { "translate": "advancements.ariadne.tech.energy.title" },
		"description": { "translate": "advancements.ariadne.tech.energy.description" }
	},
	"criteria": {
		"powah": {
			"trigger": "minecraft:tick",
			"conditions": {
				"player": { "player": {
					"advancements": { 
						"ariadne:tech/powah": true
					}
				}}
			}
		},
		"extra_gen": {
			"trigger": "minecraft:tick",
			"conditions": {
				"player": { "player": { 
					"advancements": { 
						"ariadne:tech/extra_gen": true
					}
				}}
			}
		}
	},
	"requirements": [
		[ "powah", "extra_gen" ]
	]
}
