{
	"parent": "ariadne:tech/energy",
	"display": {
		"icon": { "item": "lifts:electric_lift_mk3" },
		"title": { "translate": "advancements.ariadne.tech.lifts.title" },
		"description": { "translate": "advancements.ariadne.tech.lifts.description" }
	},
	"criteria": {
		"lifts": {
			"trigger": "minecraft:inventory_changed",
			"conditions": {
				"items": [{
					"items": [ 
						"lifts:electric_lift_mk1",
						"lifts:electric_lift_mk2",
						"lifts:electric_lift_mk3",
						"lifts:electric_lift_mk4",
						"lifts:electric_lift_mk5"
					]
				}]
			}
		}
	}
}
