{
	"parent": "ariadne:tech/root",
	"display": {
		"icon": { "item": "mtr:dashboard" },
		"title": { "translate": "advancements.ariadne.tech.mtr.title" },
		"description": { "translate": "advancements.ariadne.tech.mtr.description" }
	},
	"criteria": {
		"connect": {
			"trigger": "minecraft:item_used_on_block",
			"conditions": {
				"location": { "block": {
					"blocks": [ "mtr:rail" ]
				}},
				"item": {
					"items": [
						"mtr:rail_connector_20",
						"mtr:rail_connector_40",
						"mtr:rail_connector_60",
						"mtr:rail_connector_80",
						"mtr:rail_connector_120",
						"mtr:rail_connector_160",
						"mtr:rail_connector_200",
						"mtr:rail_connector_300",
						"mtr:rail_connector_20_one_way",
						"mtr:rail_connector_40_one_way",
						"mtr:rail_connector_60_one_way",
						"mtr:rail_connector_80_one_way",
						"mtr:rail_connector_120_one_way",
						"mtr:rail_connector_160_one_way",
						"mtr:rail_connector_200_one_way",
						"mtr:rail_connector_300_one_way"
					]
				}
			}
		},
		"dahsboard": {
			"trigger": "minecraft:inventory_changed",
			"conditions": {
				"items": [{
					"items": [ "mtr:dashboard" ]
				}]
			}
		}
	}
}
