{
	"type": "create:crushing",
	"ingredients": [
		{
			"item": "excavated_variants:create_veridium_brilliant_stone"
		}
	],
	"results": [
		{
			"item": "create:experience_nugget",
			"count": 4
		},
		{
			"item": "create:experience_nugget",
			"chance": 0.75
		},
		{
			"item": "create:veridium",
			"chance": 0.125
		}
	],
	"processingTime": 350
}
