{
	"type": "create:crushing",
	"ingredients": [
		{
			"item": "excavated_variants:smooth_basalt_uraninite_ore_poor"
		}
	],
	"results": [
		{
			"item": "powah:uraninite_raw"
		},
		{
			"item": "powah:uraninite_raw",
			"chance": 0.75
		},
		{
			"item": "create:experience_nugget",
			"chance": 0.75
		},
		{
			"item": "minecraft:smooth_basalt",
			"chance": 0.125
		}
	],
	"processingTime": 350
}
