{
	"type": "minecraft:crafting_shaped",
	"pattern": [
		"oco",
		"cCc",
		"oEo"
	],
	"key": {
		"o": {
			"item": "minecraft:obsidian"
		},
		"c": {
			"item": "powah:crystal_nitro"
		},
		"C": {
			"item": "create:shadow_steel_casing"
		},
		"E": {
			"item": "powah:ender_core"
		}
	},
	"result": {
		"item": "spatialharvesters:casing"
	}
}
