{
	"values": [
		"botania:terrasteel_chestplate",
		"modern_industrialization:quantum_chestplate",
		"spectrum:bedrock_chestplate",
		{
			"id": "techreborn:quantum_chestplate",
			"required": false
		},
		"dml-refabricated:glitch_chestplate",
		{
			"id": "the_aether:gravitite_chestplate",
			"required": false
		},
		"modern_industrialization:diesel_jetpack",
		"modern_industrialization:gravichestplate"
	]
}
