{
  "mod_id": "modern_industrialization",
  "provided_stones": [],
  "provided_ores": [
    {
      "block_id": [
        "modern_industrialization:antimony_ore",
        "modern_industrialization:deepslate_antimony_ore"
      ],
      "en_name": "Antimony Ore",
      "types": [
        "stone"
      ],
      "texture_count": 5,
      "id": "antimony_ore",
      "stone": [
        "stone",
        "deepslate"
      ]
    },
    {
      "block_id": [
        "modern_industrialization:bauxite_ore",
        "modern_industrialization:deepslate_bauxite_ore"
      ],
      "en_name": "Bauxite Ore",
      "types": [
        "stone"
      ],
      "texture_count": 5,
      "id": "bauxite_ore",
      "stone": [
        "stone",
	"deepslate"
      ]
    },
    {
      "block_id": [
        "modern_industrialization:iridium_ore",
        "modern_industrialization:deepslate_iridium_ore"
      ],
      "en_name": "Iridium Ore",
      "types": [
        "stone"
      ],
      "texture_count": 5,
      "id": "iridium_ore",
      "stone": [
        "stone",
        "deepslate"
      ]
    },
    {
      "block_id": [
        "modern_industrialization:lead_ore",
        "modern_industrialization:deepslate_lead_ore"
      ],
      "en_name": "Lead Ore",
      "types": [
        "stone"
      ],
      "texture_count": 5,
      "id": "lead_ore",
      "stone": [
        "stone",
        "deepslate"
      ]
    },
    {
      "block_id": [
        "modern_industrialization:lignite_coal_ore",
        "modern_industrialization:deepslate_lignite_coal_ore"
      ],
      "en_name": "Lignite Coal Ore",
      "types": [
        "stone"
      ],
      "texture_count": 5,
      "id": "lignite_ore",
      "stone": [
        "stone",
        "deepslate"
      ]
    },
    {
      "block_id": [
        "modern_industrialization:mozanite_ore",
        "modern_industrialization:deepslate_mozanite_ore"
      ],
      "en_name": "Mozanite Ore",
      "types": [
        "stone"
      ],
      "texture_count": 5,
      "id": "mozanite_ore",
      "stone": [
        "stone",
        "deepslate"
      ]
    },
    {
      "block_id": [
        "modern_industrialization:nickel_ore",
        "modern_industrialization:deepslate_nickel_ore"
      ],
      "en_name": "Nickel Ore",
      "types": [
        "stone"
      ],
      "texture_count": 5,
      "id": "nickel_ore",
      "stone": [
        "stone",
        "deepslate"
      ]
    },
    {
      "block_id": [
        "modern_industrialization:salt_ore",
        "modern_industrialization:deepslate_salt_ore"
      ],
      "en_name": "Salt Ore",
      "types": [
        "stone"
      ],
      "texture_count": 5,
      "id": "salt_ore",
      "stone": [
        "stone",
        "deepslate"
      ]
    },
    {
      "block_id": [
        "modern_industrialization:tin_ore",
        "modern_industrialization:deepslate_tin_ore"
      ],
      "en_name": "Tin Ore",
      "types": [
        "stone"
      ],
      "texture_count": 5,
      "id": "tin_ore",
      "stone": [
        "stone",
        "deepslate"
      ]
    },
    {
      "block_id": [
        "modern_industrialization:tungsten_ore",
        "modern_industrialization:deepslate_tungsten_ore"
      ],
      "en_name": "Tungsten Ore",
      "types": [
        "stone"
      ],
      "texture_count": 5,
      "id": "tungsten_ore",
      "stone": [
        "stone",
        "deepslate"
      ]
    },
    {
      "block_id": [
        "modern_industrialization:uranium_ore",
        "modern_industrialization:deepslate_uranium_ore"
      ],
      "en_name": "Uranium Ore",
      "types": [
        "stone"
      ],
      "texture_count": 5,
      "id": "uranium_ore",
      "stone": [
        "stone",
	"deepslate"
      ]
    }
  ]
}
