cobalt	tconstruct:raw_cobalt	kubejs:cobalt_dust	100
adamantite	mythicmetals:raw_adamantite	mythicmetals:adamantite_dust	100
aquarium	mythicmetals:raw_aquarium	mythicmetals:aquarium_dust	100
banglum	mythicmetals:raw_banglum	mythicmetals:banglum_dust	100
carmot	mythicmetals:raw_carmot	mythicmetals:carmot_dust	100
kyber	mythicmetals:raw_kyber	mythicmetals:kyber_dust	100
midas_gold	mythicmetals:raw_midas_gold	mythicmetals:midas_gold_dust	100
mythril	mythicmetals:raw_mythril	mythicmetals:mythril_dust	100
orichalcum	mythicmetals:raw_orichalcum	mythicmetals:orichalcum_dust	100
osmium	mythicmetals:raw_osmium	mythicmetals:osmium_dust	100
palladium	mythicmetals:raw_palladium	mythicmetals:palladium_dust	100
platinum	mythicmetals:raw_platinum	mythicmetals:platinum_dust	100
prometheum	mythicmetals:raw_prometheum	mythicmetals:prometheum_dust	100
runite	mythicmetals:raw_runite	mythicmetals:runite_dust	100
stormyx	mythicmetals:raw_stormyx	mythicmetals:stormyx_dust	100
