{
	"parent": "ariadne:decoration/root",
	"display": {
		"icon": { "item": "bitsandchisels:smart_chisel" },
		"title": { "translate": "advancements.ariadne.decoration.bits.title" },
		"description": { "translate": "advancements.ariadne.decoration.bits.description" }
	},
	"criteria": {
		"chisel": {
			"trigger": "minecraft:item_used_on_block",
			"conditions": {
				"item": {
					"items": [ "bitsandchisels:bit_item" ]
				}
			}
		}
	}
}
