{
	"type": "modern_industrialization:macerator",
	"eu": 4,
	"duration": 200,
	"item_inputs": {
		"tag": "c:purpur_remnants",
		"amount": 1
	},
	"item_outputs": [
		{
			"item": "purpeille:remnant_chunk",
			"amount": 3
		},
		{
			"item": "purpeille:impure_preserved_dust",
			"amount": 2
		}
	]
}
