{
	"parent": "ariadne:utilities/root",
	"display": {
		"icon": { "item": "portalcubed:portal_gun" },
		"title": { "translate": "advancements.ariadne.utilities.portal_cubed.title" },
		"description": { "translate": "advancements.ariadne.utilities.portal_cubed.description" }
	},
	"criteria": {
		"gun": {
			"trigger": "minecraft:inventory_changed",
			"conditions": {
				"items": [
					{
						"items": [ "portalcubed:portal_gun" ]
					}
				]
			}
		}
	}
}
