{
	"parent": "ariadne:equipment/root",
	"display": {
		"icon": { "item": "utilities:shackle" },
		"title": { "translate": "advancements.ariadne.equipment.utilities.title" },
		"description": { "translate": "advancements.ariadne.equipment.utilities.description" }
	},
	"criteria": {
		"aglet": {
			"trigger": "minecraft:inventory_changed",
			"conditions": {
				"items": [
					{
						"items": [ "utilities:aglet" ]
					}
				]
			}
		},
		"feralclaws": {
			"trigger": "minecraft:inventory_changed",
			"conditions": {
				"items": [
					{
						"items": [ "utilities:feralclaws" ]
					}
				]
			}
		},
		"shackle": {
			"trigger": "minecraft:inventory_changed",
			"conditions": {
				"items": [
					{
						"items": [ "utilities:shackle" ]
					}
				]
			}
		}
	},
	"requirements": [
		[ "aglet", "shackle", "feralclaws" ]
	]
}
