{
	"display": {
		"icon": { "item": "kubejs:adventure" },
		"title": { "translate": "advancements.adventure.root.title" },
		"description": { "translate": "advancements.adventure.root.description" },
		"show_toast": false,
		"announce_to_chat": false,
		"background": "minecraft:textures/gui/advancements/backgrounds/adventure.png"
	},
	"criteria": {
		"be_adventurous": {
			"trigger": "minecraft:tick",
			"conditions": {}
		}
	}
}
