{
	"display": {
		"background": "biomemakeover:textures/block/dried_peat.png",
		"icon": { "item": "kubejs:world" },
		"title": { "translate": "advancements.ariadne.world.root.title" },
		"description": { "translate": "advancements.ariadne.world.root.description" },
		"show_toast": false,
		"announce_to_chat": false
	},
	"criteria": { 
		"exist": {
			"trigger": "minecraft:tick",
			"conditions": {}
		}
	}
}
