{
	"type": "create:crushing",
	"ingredients": [
		{
			"item": "spectrum:azurite_ore"
		}
	],
	"results": [
		{
			"item": "spectrum:raw_azurite",
			"count": 2
		},
		{
			"item": "spectrum:raw_azurite",
			"chance": 0.5
		},
		{
			"item": "create:experience_nugget",
			"chance": 0.75
		},
		{
			"item": "minecraft:cobblestone",
			"chance": 0.125
		}
	],
	"processingTime": 350
}
