{
	"type": "modern_industrialization:macerator",
	"eu": 2,
	"duration": 200,
	"item_inputs": {
		"tag": "c:runite_ores",
		"amount": 1
	},
	"item_outputs": {
		"item": "mythicmetals:raw_runite",
		"amount": 3
	}
}
