{
	"parent": "minecraft:husbandry/root",
	"display": {
		"icon": { "item": "farmersdelight:cooking_pot" },
		"title": { "translate": "farmersdelight.advancement.root" },
		"description": { "translate": "farmersdelight.advancement.root.desc" },
		"frame": "goal",
		"show_toast": false,
		"announce_to_chat": false
	},
	"criteria": {
		"seeds": {
			"trigger": "minecraft:inventory_changed",
			"conditions": {}
		}
	}
}
