{
	"fabric:load_conditions": [
		{
			"condition": "fabric:all_mods_loaded",
			"values": [
				"modern_industrialization"
			]
		}
	],
	"type": "modern_industrialization:mixer",
	"eu": 2,
	"duration": 50,
	"item_inputs": [
		{
			"tag": "c:copper_dusts",
			"amount": 1
		},
		{
			"tag": "c:zinc_dusts",
			"amount": 1
		}
	],
	"item_outputs": [
		{
			"item": "createplus:brass_dust",
			"amount": 2
		}
	]
}
