{
	"type": "smithing",
	"base": {
		"item": "mythicmetals:metallurgium_chestplate"
	},
	"addition": {
		"item": "modern_industrialization:quantum_upgrade"
	},
	"result": {
		"item": "modern_industrialization:quantum_chestplate"
	}
}
