{
	"parent": "ariadne:tech/root",
	"display": {
		"icon": { "item": "create:brass_hand" },
		"title": { "translate": "advancement.ariadne.tech.create.title" },
		"description": {
			"color": "#DBA213",
			"translate": "advancement.create.root.desc"
		},
		"frame": "goal",
		"show_toast": false,
		"announce_to_chat": false,
		"hidden": false
	},
	"criteria": {
		"0": {
			"trigger": "minecraft:inventory_changed"
		}
	}
}
